<svg xmlns="http://www.w3.org/2000/svg" xmlns:xlink="http://www.w3.org/1999/xlink" width="78" height="78" viewBox="0 0 78 78">
  <defs>
    <filter id="Elipse_8" x="0" y="0" width="78" height="78" filterUnits="userSpaceOnUse">
      <feOffset dy="3" input="SourceAlpha"/>
      <feGaussianBlur stdDeviation="1.5" result="blur"/>
      <feFlood flood-opacity="0.161"/>
      <feComposite operator="in" in2="blur"/>
      <feComposite in="SourceGraphic"/>
    </filter>
  </defs>
  <g id="Grupo_198" data-name="Grupo 198" transform="translate(-269.5 -255.5)">
    <g transform="matrix(1, 0, 0, 1, 269.5, 255.5)" filter="url(#Elipse_8)">
      <circle id="Elipse_8-2" data-name="Elipse 8" cx="34.5" cy="34.5" r="34.5" transform="translate(4.5 1.5)" fill="#ffae00"/>
    </g>
    <g id="Grupo_47" data-name="Grupo 47">
      <g id="Grupo_46" data-name="Grupo 46" transform="translate(-45.685 -77.737)">
        <rect id="Retângulo_33" data-name="Retângulo 33" width="1.69" height="3.619" transform="translate(353.637 373.525)" fill="#fff"/>
        <path id="Caminho_81" data-name="Caminho 81" d="M345.367,355.737h18.223c1.212,0,1.811,1.051,2.2,2.2l1.17,3.475a5.749,5.749,0,0,1,.319,1.948v7.006a2.2,2.2,0,0,1-2.2,2.2h-21.2a2.2,2.2,0,0,1-2.193-2.2v-7.006a5.929,5.929,0,0,1,.315-1.948l1.173-3.475c.385-1.149.988-2.2,2.193-2.2Zm6.081,15.13v-4.014h1.11v4.014H364.85a.736.736,0,0,0,.736-.736v-6.558a.733.733,0,0,0-.736-.732H344.109a.732.732,0,0,0-.732.732v6.558a.735.735,0,0,0,.732.736h1.079v-4.014H346.3v4.014h.97v-4.014h1.117v4.014h.97v-4.014h1.114v4.014Zm10.432-4.014a1.42,1.42,0,1,0,1.419-1.419A1.419,1.419,0,0,0,361.88,366.852Z" transform="translate(0.001 0)" fill="#fff" fill-rule="evenodd"/>
        <path id="Caminho_83" data-name="Caminho 83" d="M-10,0H8.012V1.69H-10Z" transform="translate(341.685 379.768)" fill="#fff"/>
        <path id="Caminho_82" data-name="Caminho 82" d="M0,0H18.008V1.69H0Z" transform="translate(359.268 379.768)" fill="#fff"/>
        <rect id="Retângulo_36" data-name="Retângulo 36" width="7.464" height="4.948" rx="0.307" transform="translate(350.75 378.289)" fill="#fff"/>
      </g>
    </g>
  </g>
</svg>
