<svg xmlns="http://www.w3.org/2000/svg" width="13.926" height="13.925" viewBox="0 0 13.926 13.925">
  <path id="Caminho_227" data-name="Caminho 227" d="M353.4,421.235a6.316,6.316,0,0,1,1.371,1.031l.023.025a6.281,6.281,0,0,1,1.008,1.348,1.587,1.587,0,0,1-.265,1.912l0,0h0l-7.891,7.891a.385.385,0,0,1-.189.1l-4.859,1.391a.4.4,0,0,1-.5-.5l1.393-4.859a.376.376,0,0,1,.111-.193l7.884-7.884a1.594,1.594,0,0,1,1.914-.268ZM343.635,432a4.676,4.676,0,0,1,1.439,1.385l1.8-.517-.3-1.262-1.531.14-.064,0h0a.4.4,0,0,1-.414-.187l-.551-.893L343.635,432Zm11.55-7.7-7.607,7.607.058.393,7.325-7.323h0a.8.8,0,0,0,.228-.449.768.768,0,0,0,0-.228ZM344.92,430.6l8.438-8.438c-.115-.076-.235-.146-.354-.214a.8.8,0,0,0-.5-.1.787.787,0,0,0-.449.228l-7.664,7.664Z" transform="translate(-342.078 -421.03)" fill="#fff" fill-rule="evenodd" opacity="0.86"/>
</svg>
