<svg xmlns="http://www.w3.org/2000/svg" width="130" height="130" viewBox="0 0 130 130">
  <g id="Grupo_190" data-name="Grupo 190" transform="translate(-116 -277)">
    <path id="Caminho_69" data-name="Caminho 69" d="M252.326,384.9l27.063-27.062a1.942,1.942,0,0,1,2.733,0l7.56,7.559a1.937,1.937,0,0,1,0,2.741L253.7,404.118l-.068.068h0l-.076.068h0l-.043.025v.009l-.077.051h0l-.077.051h0l-.042.026v.009l-.043.017h0l-.043.025h0l-.042.017h0l-.043.026h0l-.043.017h0l-.042.017h0l-.043.017h0l-.051.017h0l-.043.017h0l-.043.009h0l-.042.017h0l-.051.009-.042.008h0l-.043.009h0l-.051.009h0l-.043.009h0l-.043.008h-.051v.009h-.375v-.009l-.136-.017h0l-.051-.009h0l-.043-.009h0l-.042-.008-.043-.009h0l-.094-.026h0l-.043-.017h0l-.042-.017h0l-.043-.017-.179-.077-.043-.025h0l-.077-.051h0a1.715,1.715,0,0,1-.34-.272c-31.779-31.77,9.994,10-21.785-21.776a1.943,1.943,0,0,1,0-2.733l7.559-7.568a1.953,1.953,0,0,1,2.741,0Z" transform="translate(-78.813 -39.191)" fill="#00a51d" fill-rule="evenodd"/>
    <g id="Elipse_7" data-name="Elipse 7" transform="translate(116 277)" fill="none" stroke="#00a51d" stroke-width="14">
      <circle cx="65" cy="65" r="65" stroke="none"/>
      <circle cx="65" cy="65" r="58" fill="none"/>
    </g>
  </g>
</svg>
